…
``` r
score_df = df %>% 
  janitor::clean_names() %>% 
  drop_na() %>% # Drop rows with any missing values
  mutate(across(where(is.character), as.factor))
  

score_df
```

    ## # A tibble: 587 × 14
    ##    gender ethnic_group parent_educ    lunch_type test_prep parent_marital_status
    ##    <fct>  <fct>        <fct>          <fct>      <fct>     <fct>                
    ##  1 female group B      master's degr… standard   none      single               
    ##  2 male   group C      some college   standard   none      married              
    ##  3 female group B      associate's d… standard   none      married              
    ##  4 female group B      some college   standard   completed widowed              
    ##  5 male   group B      some college   free/redu… none      married              
    ##  6 male   group D      high school    free/redu… completed single               
    ##  7 male   group D      associate's d… standard   none      divorced             
    ##  8 female group B      high school    standard   none      married              
    ##  9 male   group A      some college   standard   completed single               
    ## 10 female group A      master's degr… standard   none      divorced             
    ## # ℹ 577 more rows
    ## # ℹ 8 more variables: practice_sport <fct>, is_first_child <fct>,
    ## #   nr_siblings <dbl>, transport_means <fct>, wkly_study_hours <fct>,
    ## #   math_score <dbl>, reading_score <dbl>, writing_score <dbl>
…
