…
score_df_mean = score_df|>
  mutate(across(where(is.numeric), ~ ifelse(is.na(.), mean(., na.rm = TRUE), .))) |>
   na.omit()

score_df_sib_mean = score_df_sib|>
  mutate(across(where(is.numeric), ~ ifelse(is.na(.), mean(., na.rm = TRUE), .))) |>
   na.omit()
```

``` r
score_df_mean
```

    ## # A tibble: 618 × 14
    ##    gender ethnic_group parent_educ    lunch_type test_prep parent_marital_status
    ##    <fct>  <fct>        <fct>          <fct>      <fct>     <fct>                
    ##  1 female group B      master's degr… standard   none      single               
    ##  2 male   group C      some college   standard   none      married              
    ##  3 female group B      associate's d… standard   none      married              
    ##  4 female group B      some college   standard   completed widowed              
    ##  5 male   group B      some college   free/redu… none      married              
    ##  6 male   group D      high school    free/redu… completed single               
    ##  7 female group B      high school    free/redu… none      married              
    ##  8 male   group D      associate's d… standard   none      divorced             
    ##  9 female group B      high school    standard   none      married              
    ## 10 male   group A      some college   standard   completed single               
    ## # ℹ 608 more rows
    ## # ℹ 8 more variables: practice_sport <fct>, is_first_child <fct>,
    ## #   nr_siblings <dbl>, transport_means <fct>, wkly_study_hours <fct>,
    ## #   math_score <dbl>, reading_score <dbl>, writing_score <dbl>
…
